4
8
0
0
150
0
0	0.00487
0.053	0.321
0.106	0.631
0.159	0.937
0.212	1.24
0.265	1.54
0.318	1.83
0.371	2.12
0.424	2.41
0.477	2.69
0.53	2.97
0.583	3.25
0.636	3.52
0.689	3.79
0.742	4.05
0.795	4.31
0.848	4.57
0.901	4.82
0.954	5.07
1.01	5.31
1.06	5.55
1.11	5.79
1.17	6.02
1.22	6.24
1.27	6.47
1.33	6.69
1.38	6.9
1.43	7.11
1.48	7.31
1.54	7.51
1.59	7.71
1.64	7.9
1.7	8.09
1.75	8.27
1.8	8.45
1.86	8.63
1.91	8.8
1.96	8.96
2.01	9.12
2.07	9.28
2.12	9.43
2.17	9.58
2.23	9.72
2.28	9.86
2.33	10
2.38	10.1
2.44	10.3
2.49	10.4
2.54	10.5
2.6	10.6
2.65	10.7
2.7	10.8
2.76	10.9
2.81	11
2.86	11.1
2.91	11.2
2.97	11.3
3.02	11.4
3.07	11.4
3.13	11.5
3.18	11.6
3.23	11.6
3.29	11.7
3.34	11.7
3.39	11.8
3.44	11.8
3.5	11.9
3.55	11.9
3.6	11.9
3.66	12
3.71	12
3.76	12
3.82	12.1
3.87	12.1
3.92	12.1
3.97	12.1
4.03	12.1
4.08	12.1
4.13	12.2
4.19	12.2
4.24	12.2
4.29	12.2
4.35	12.2
4.4	12.2
4.45	12.2
4.51	12.2
4.56	12.2
4.61	12.2
4.66	12.2
4.72	12.2
4.77	12.2
4.82	12.2
4.88	12.2
4.93	12.3
4.98	12.3
5.03	12.3
5.09	12.3
5.14	12.3
5.19	12.3
5.25	12.3
5.3	12.3
5.35	12.3
5.41	12.3
5.46	12.3
5.51	12.3
5.57	12.3
5.62	12.3
5.67	12.3
5.72	12.3
5.78	12.3
5.83	12.3
5.88	12.3
5.94	12.3
5.99	12.3
6.04	12.3
6.09	12.3
6.15	12.3
6.2	12.3
6.25	12.3
6.31	12.3
6.36	12.3
6.41	12.3
6.47	12.3
6.52	12.3
6.57	12.3
6.62	12.3
6.68	12.3
6.73	12.3
6.78	12.3
6.84	12.3
6.89	12.3
6.94	12.3
7	12.3
7.05	12.3
7.1	12.3
7.16	12.3
7.21	12.3
7.26	12.3
7.31	12.3
7.37	12.3
7.42	12.3
7.47	12.3
7.53	12.3
7.58	12.3
7.63	12.3
7.68	12.3
7.74	12.3
7.79	12.3
7.84	12.3
7.9	12.3
7.95	12.3
0	0.00448
0.053	0.267
0.106	0.525
0.159	0.778
0.212	1.03
0.265	1.27
0.318	1.51
0.371	1.75
0.424	1.99
0.477	2.21
0.53	2.44
0.583	2.69
0.636	2.91
0.689	3.12
0.742	3.33
0.795	3.54
0.848	3.75
0.901	3.95
0.954	4.14
1.01	4.34
1.06	4.54
1.11	4.73
1.17	4.9
1.22	5.07
1.27	5.23
1.33	5.4
1.38	5.56
1.43	5.72
1.48	5.87
1.54	6.02
1.59	6.16
1.64	6.3
1.7	6.43
1.75	6.56
1.8	6.68
1.86	6.8
1.91	6.92
1.96	7.03
2.01	7.13
2.07	7.23
2.12	7.33
2.17	7.42
2.23	7.51
2.28	7.59
2.33	7.67
2.38	7.74
2.44	7.81
2.49	7.88
2.54	7.94
2.6	8
2.65	8.05
2.7	8.1
2.76	8.14
2.81	8.18
2.86	8.22
2.91	8.25
2.97	8.28
3.02	8.3
3.07	8.32
3.13	8.34
3.18	8.36
3.23	8.38
3.29	8.39
3.34	8.4
3.39	8.41
3.44	8.43
3.5	8.44
3.55	8.45
3.6	8.45
3.66	8.46
3.71	8.47
3.76	8.47
3.82	8.47
3.87	8.48
3.92	8.48
3.97	8.49
4.03	8.49
4.08	8.49
4.13	8.5
4.19	8.5
4.24	8.51
4.29	8.51
4.35	8.51
4.4	8.51
4.45	8.52
4.51	8.52
4.56	8.52
4.61	8.52
4.66	8.53
4.72	8.53
4.77	8.53
4.82	8.53
4.88	8.54
4.93	8.54
4.98	8.54
5.03	8.54
5.09	8.55
5.14	8.55
5.19	8.55
5.25	8.55
5.3	8.55
5.35	8.56
5.41	8.56
5.46	8.56
5.51	8.56
5.57	8.56
5.62	8.56
5.67	8.57
5.72	8.57
5.78	8.57
5.83	8.57
5.88	8.57
5.94	8.57
5.99	8.57
6.04	8.58
6.09	8.58
6.15	8.58
6.2	8.58
6.25	8.58
6.31	8.59
6.36	8.59
6.41	8.59
6.47	8.59
6.52	8.59
6.57	8.59
6.62	8.59
6.68	8.59
6.73	8.6
6.78	8.6
6.84	8.6
6.89	8.6
6.94	8.6
7	8.6
7.05	8.6
7.1	8.61
7.16	8.61
7.21	8.61
7.26	8.61
7.31	8.61
7.37	8.61
7.42	8.62
7.47	8.62
7.53	8.62
7.58	8.62
7.63	8.62
7.68	8.62
7.74	8.63
7.79	8.63
7.84	8.63
7.9	8.63
7.95	8.63
0	0.00396
0.053	0.219
0.106	0.429
0.159	0.634
0.212	0.835
0.265	1.03
0.318	1.22
0.371	1.41
0.424	1.59
0.477	1.77
0.53	1.95
0.583	2.12
0.636	2.28
0.689	2.44
0.742	2.6
0.795	2.75
0.848	2.9
0.901	3.04
0.954	3.18
1.01	3.31
1.06	3.44
1.11	3.56
1.17	3.68
1.22	3.79
1.27	3.9
1.33	4.01
1.38	4.11
1.43	4.2
1.48	4.29
1.54	4.38
1.59	4.46
1.64	4.53
1.7	4.61
1.75	4.67
1.8	4.73
1.86	4.79
1.91	4.84
1.96	4.89
2.01	4.93
2.07	4.97
2.12	5
2.17	5.03
2.23	5.05
2.28	5.07
2.33	5.09
2.38	5.11
2.44	5.12
2.49	5.13
2.54	5.14
2.6	5.15
2.65	5.16
2.7	5.16
2.76	5.17
2.81	5.17
2.86	5.18
2.91	5.18
2.97	5.18
3.02	5.19
3.07	5.19
3.13	5.2
3.18	5.2
3.23	5.2
3.29	5.2
3.34	5.21
3.39	5.21
3.44	5.21
3.5	5.22
3.55	5.22
3.6	5.22
3.66	5.22
3.71	5.23
3.76	5.23
3.82	5.23
3.87	5.23
3.92	5.24
3.97	5.24
4.03	5.24
4.08	5.24
4.13	5.24
4.19	5.25
4.24	5.25
4.29	5.25
4.35	5.25
4.4	5.25
4.45	5.26
4.51	5.26
4.56	5.26
4.61	5.26
4.66	5.26
4.72	5.27
4.77	5.27
4.82	5.27
4.88	5.27
4.93	5.27
4.98	5.27
5.03	5.28
5.09	5.28
5.14	5.28
5.19	5.28
5.25	5.28
5.3	5.28
5.35	5.29
5.41	5.29
5.46	5.29
5.51	5.29
5.57	5.29
5.62	5.29
5.67	5.29
5.72	5.29
5.78	5.3
5.83	5.3
5.88	5.3
5.94	5.3
5.99	5.3
6.04	5.3
6.09	5.31
6.15	5.31
6.2	5.31
6.25	5.31
6.31	5.31
6.36	5.31
6.41	5.31
6.47	5.32
6.52	5.32
6.57	5.32
6.62	5.32
6.68	5.32
6.73	5.32
6.78	5.32
6.84	5.33
6.89	5.33
6.94	5.33
7	5.33
7.05	5.33
7.1	5.33
7.16	5.34
7.21	5.34
7.26	5.34
7.31	5.34
7.37	5.34
7.42	5.35
7.47	5.35
7.53	5.35
7.58	5.35
7.63	5.35
7.68	5.36
7.74	5.36
7.79	5.36
7.84	5.36
7.9	5.37
7.95	5.37
0	0.00322
0.053	0.159
0.106	0.308
0.159	0.453
0.212	0.593
0.265	0.729
0.318	0.859
0.371	0.983
0.424	1.1
0.477	1.22
0.53	1.33
0.583	1.43
0.636	1.53
0.689	1.63
0.742	1.72
0.795	1.8
0.848	1.88
0.901	1.95
0.954	2.02
1.01	2.08
1.06	2.14
1.11	2.19
1.17	2.24
1.22	2.28
1.27	2.32
1.33	2.35
1.38	2.37
1.43	2.4
1.48	2.41
1.54	2.43
1.59	2.44
1.64	2.45
1.7	2.45
1.75	2.46
1.8	2.46
1.86	2.47
1.91	2.47
1.96	2.47
2.01	2.48
2.07	2.48
2.12	2.48
2.17	2.48
2.23	2.49
2.28	2.49
2.33	2.49
2.38	2.49
2.44	2.5
2.49	2.5
2.54	2.5
2.6	2.5
2.65	2.5
2.7	2.5
2.76	2.51
2.81	2.51
2.86	2.51
2.91	2.51
2.97	2.51
3.02	2.51
3.07	2.52
3.13	2.52
3.18	2.52
3.23	2.52
3.29	2.52
3.34	2.52
3.39	2.52
3.44	2.52
3.5	2.53
3.55	2.53
3.6	2.53
3.66	2.53
3.71	2.53
3.76	2.53
3.82	2.53
3.87	2.53
3.92	2.54
3.97	2.54
4.03	2.54
4.08	2.54
4.13	2.54
4.19	2.54
4.24	2.54
4.29	2.54
4.35	2.54
4.4	2.55
4.45	2.55
4.51	2.55
4.56	2.55
4.61	2.55
4.66	2.55
4.72	2.55
4.77	2.55
4.82	2.55
4.88	2.56
4.93	2.56
4.98	2.56
5.03	2.56
5.09	2.56
5.14	2.56
5.19	2.56
5.25	2.56
5.3	2.56
5.35	2.56
5.41	2.57
5.46	2.57
5.51	2.57
5.57	2.57
5.62	2.57
5.67	2.57
5.72	2.57
5.78	2.57
5.83	2.57
5.88	2.57
5.94	2.57
5.99	2.58
6.04	2.58
6.09	2.58
6.15	2.58
6.2	2.58
6.25	2.58
6.31	2.58
6.36	2.58
6.41	2.58
6.47	2.58
6.52	2.59
6.57	2.59
6.62	2.59
6.68	2.59
6.73	2.59
6.78	2.59
6.84	2.59
6.89	2.59
6.94	2.6
7	2.6
7.05	2.6
7.1	2.6
7.16	2.6
7.21	2.6
7.26	2.6
7.31	2.6
7.37	2.61
7.42	2.61
7.47	2.61
7.53	2.61
7.58	2.61
7.63	2.61
7.68	2.62
7.74	2.62
7.79	2.62
7.84	2.62
7.9	2.62
7.95	2.62
