4
3
0
0
200
1
0	0.000412
0.015	0.00041
0.03	0.00042
0.045	0.000782
0.06	0.00128
0.075	0.00155
0.09	0.00188
0.105	0.0028
0.12	0.00376
0.135	0.0047
0.15	0.00582
0.165	0.00788
0.18	0.0112
0.195	0.0115
0.21	0.0152
0.225	0.0176
0.24	0.022
0.255	0.026
0.27	0.0301
0.285	0.0349
0.3	0.0396
0.315	0.0441
0.33	0.0508
0.345	0.0539
0.36	0.0643
0.375	0.0718
0.39	0.0804
0.405	0.0881
0.42	0.0902
0.435	0.105
0.45	0.109
0.465	0.114
0.48	0.122
0.495	0.134
0.51	0.146
0.525	0.156
0.54	0.166
0.555	0.177
0.57	0.189
0.585	0.2
0.6	0.214
0.615	0.222
0.63	0.238
0.645	0.253
0.66	0.267
0.675	0.283
0.69	0.293
0.705	0.311
0.72	0.326
0.735	0.342
0.75	0.351
0.765	0.364
0.78	0.376
0.795	0.394
0.81	0.406
0.825	0.424
0.84	0.442
0.855	0.46
0.87	0.477
0.885	0.495
0.9	0.513
0.915	0.532
0.93	0.549
0.945	0.566
0.96	0.588
0.975	0.611
0.99	0.63
1	0.65
1.02	0.671
1.03	0.694
1.05	0.714
1.06	0.735
1.08	0.758
1.09	0.78
1.11	0.802
1.12	0.82
1.14	0.853
1.15	0.877
1.17	0.904
1.18	0.929
1.2	0.954
1.21	0.98
1.23	1.02
1.24	1.03
1.26	1.05
1.27	1.08
1.29	1.1
1.3	1.12
1.32	1.15
1.33	1.18
1.35	1.2
1.36	1.23
1.38	1.26
1.39	1.29
1.41	1.31
1.42	1.33
1.44	1.36
1.45	1.39
1.47	1.42
1.48	1.45
1.5	1.48
1.51	1.51
1.53	1.54
1.54	1.57
1.56	1.59
1.57	1.62
1.59	1.65
1.6	1.69
1.62	1.72
1.63	1.75
1.65	1.77
1.66	1.8
1.68	1.83
1.69	1.87
1.71	1.9
1.72	1.93
1.74	1.97
1.75	2
1.77	2.03
1.78	2.06
1.8	2.08
1.81	2.12
1.83	2.16
1.84	2.19
1.86	2.23
1.87	2.26
1.89	2.28
1.9	2.32
1.92	2.36
1.93	2.4
1.95	2.43
1.96	2.46
1.98	2.5
1.99	2.53
2.01	2.57
2.02	2.6
2.04	2.64
2.05	2.66
2.07	2.71
2.08	2.75
2.1	2.79
2.11	2.82
2.13	2.85
2.14	2.9
2.16	2.93
2.17	2.96
2.19	3
2.2	3.04
2.22	3.08
2.23	3.12
2.25	3.16
2.27	3.2
2.28	3.23
2.3	3.27
2.31	3.31
2.33	3.35
2.34	3.39
2.36	3.43
2.37	3.46
2.39	3.49
2.4	3.54
2.42	3.58
2.43	3.62
2.45	3.67
2.46	3.7
2.48	3.75
2.49	3.79
2.51	3.82
2.52	3.85
2.54	3.9
2.55	3.94
2.57	3.97
2.58	4.02
2.6	4.06
2.61	4.11
2.63	4.15
2.64	4.19
2.66	4.22
2.67	4.27
2.69	4.31
2.7	4.36
2.72	4.39
2.73	4.44
2.75	4.49
2.76	4.52
2.78	4.56
2.79	4.61
2.81	4.66
2.82	4.7
2.84	4.75
2.85	4.79
2.87	4.83
2.88	4.87
2.9	4.92
2.91	4.96
2.93	5
2.94	5.03
2.96	5.1
2.97	5.14
2.99	5.19
3	5.23
0	0.000659
0.015	0.000659
0.03	0.00123
0.045	0.00171
0.06	0.0024
0.075	0.00332
0.09	0.00454
0.105	0.00615
0.12	0.00805
0.135	0.0106
0.15	0.0132
0.165	0.0166
0.18	0.019
0.195	0.0249
0.21	0.0252
0.225	0.0354
0.24	0.0415
0.255	0.0482
0.27	0.0554
0.285	0.0634
0.3	0.0714
0.315	0.0808
0.33	0.085
0.345	0.0918
0.36	0.112
0.375	0.12
0.39	0.134
0.405	0.137
0.42	0.16
0.435	0.173
0.45	0.176
0.465	0.202
0.48	0.211
0.495	0.233
0.51	0.249
0.525	0.265
0.54	0.283
0.555	0.301
0.57	0.319
0.585	0.337
0.6	0.346
0.615	0.359
0.63	0.396
0.645	0.416
0.66	0.438
0.675	0.459
0.69	0.482
0.705	0.503
0.72	0.525
0.735	0.549
0.75	0.573
0.765	0.596
0.78	0.622
0.795	0.646
0.81	0.672
0.825	0.678
0.84	0.724
0.855	0.738
0.87	0.778
0.885	0.803
0.9	0.831
0.915	0.859
0.93	0.889
0.945	0.916
0.96	0.947
0.975	0.949
0.99	1.01
1	1.02
1.02	1.07
1.03	1.1
1.05	1.13
1.06	1.13
1.08	1.19
1.09	1.21
1.11	1.26
1.12	1.29
1.14	1.32
1.15	1.36
1.17	1.39
1.18	1.42
1.2	1.46
1.21	1.49
1.23	1.53
1.24	1.56
1.26	1.6
1.27	1.62
1.29	1.67
1.3	1.71
1.32	1.73
1.33	1.76
1.35	1.79
1.36	1.86
1.38	1.9
1.39	1.93
1.41	1.97
1.42	2.01
1.44	2.02
1.45	2.09
1.47	2.11
1.48	2.17
1.5	2.21
1.51	2.23
1.53	2.29
1.54	2.33
1.56	2.38
1.57	2.41
1.59	2.46
1.6	2.48
1.62	2.54
1.63	2.58
1.65	2.63
1.66	2.64
1.68	2.71
1.69	2.76
1.71	2.8
1.72	2.84
1.74	2.89
1.75	2.93
1.77	2.98
1.78	3.01
1.8	3.07
1.81	3.08
1.83	3.16
1.84	3.2
1.86	3.22
1.87	3.29
1.89	3.32
1.9	3.39
1.92	3.44
1.93	3.48
1.95	3.53
1.96	3.58
1.98	3.61
1.99	3.67
2.01	3.72
2.02	3.77
2.04	3.82
2.05	3.87
2.07	3.92
2.08	3.96
2.1	4.01
2.11	4.06
2.13	4.08
2.14	4.12
2.16	4.21
2.17	4.26
2.19	4.31
2.2	4.36
2.22	4.41
2.23	4.46
2.25	4.52
2.27	4.57
2.28	4.62
2.3	4.67
2.31	4.72
2.33	4.76
2.34	4.83
2.36	4.83
2.37	4.93
2.39	4.98
2.4	5.04
2.42	5.08
2.43	5.14
2.45	5.15
2.46	5.25
2.48	5.3
2.49	5.35
2.51	5.41
2.52	5.41
2.54	5.51
2.55	5.54
2.57	5.63
2.58	5.68
2.6	5.71
2.61	5.79
2.63	5.84
2.64	5.9
2.66	5.95
2.67	6
2.69	6.03
2.7	6.12
2.72	6.17
2.73	6.23
2.75	6.25
2.76	6.34
2.78	6.39
2.79	6.46
2.81	6.51
2.82	6.57
2.84	6.63
2.85	6.68
2.87	6.72
2.88	6.8
2.9	6.83
2.91	6.91
2.93	6.97
2.94	7.03
2.96	7.07
2.97	7.14
2.99	7.15
3	7.26
0	0.000713
0.015	0.000713
0.03	0.00136
0.045	0.00185
0.06	0.00233
0.075	0.00386
0.09	0.00539
0.105	0.00746
0.12	0.0101
0.135	0.0132
0.15	0.0168
0.165	0.0217
0.18	0.0227
0.195	0.0336
0.21	0.0373
0.225	0.0489
0.24	0.0577
0.255	0.0675
0.27	0.0779
0.285	0.09
0.3	0.103
0.315	0.116
0.33	0.13
0.345	0.132
0.36	0.161
0.375	0.169
0.39	0.195
0.405	0.211
0.42	0.233
0.435	0.247
0.45	0.274
0.465	0.295
0.48	0.317
0.495	0.34
0.51	0.364
0.525	0.387
0.54	0.413
0.555	0.438
0.57	0.461
0.585	0.492
0.6	0.521
0.615	0.547
0.63	0.55
0.645	0.607
0.66	0.619
0.675	0.667
0.69	0.699
0.705	0.729
0.72	0.763
0.735	0.796
0.75	0.829
0.765	0.863
0.78	0.899
0.795	0.917
0.81	0.969
0.825	1.01
0.84	1.04
0.855	1.08
0.87	1.12
0.885	1.15
0.9	1.19
0.915	1.23
0.93	1.24
0.945	1.31
0.96	1.35
0.975	1.39
0.99	1.43
1	1.47
1.02	1.49
1.03	1.56
1.05	1.59
1.06	1.64
1.08	1.69
1.09	1.72
1.11	1.78
1.12	1.78
1.14	1.86
1.15	1.91
1.17	1.96
1.18	2.01
1.2	2.05
1.21	2.08
1.23	2.15
1.24	2.19
1.26	2.24
1.27	2.26
1.29	2.34
1.3	2.39
1.32	2.44
1.33	2.49
1.35	2.54
1.36	2.59
1.38	2.64
1.39	2.69
1.41	2.74
1.42	2.79
1.44	2.81
1.45	2.89
1.47	2.95
1.48	3
1.5	3.03
1.51	3.11
1.53	3.16
1.54	3.22
1.56	3.27
1.57	3.33
1.59	3.38
1.6	3.43
1.62	3.49
1.63	3.54
1.65	3.57
1.66	3.61
1.68	3.71
1.69	3.74
1.71	3.83
1.72	3.87
1.74	3.94
1.75	4
1.77	4.05
1.78	4.11
1.8	4.17
1.81	4.23
1.83	4.28
1.84	4.3
1.86	4.39
1.87	4.44
1.89	4.52
1.9	4.58
1.92	4.64
1.93	4.66
1.95	4.76
1.96	4.8
1.98	4.88
1.99	4.94
2.01	5
2.02	5.07
2.04	5.13
2.05	5.19
2.07	5.25
2.08	5.29
2.1	5.33
2.11	5.44
2.13	5.5
2.14	5.56
2.16	5.62
2.17	5.69
2.19	5.71
2.2	5.81
2.22	5.83
2.23	5.92
2.25	6.01
2.27	6.07
2.28	6.13
2.3	6.2
2.31	6.22
2.33	6.33
2.34	6.39
2.36	6.46
2.37	6.52
2.39	6.59
2.4	6.65
2.42	6.66
2.43	6.79
2.45	6.81
2.46	6.92
2.48	6.98
2.49	7.05
2.51	7.12
2.52	7.18
2.54	7.25
2.55	7.31
2.57	7.38
2.58	7.42
2.6	7.52
2.61	7.58
2.63	7.65
2.64	7.67
2.66	7.79
2.67	7.85
2.69	7.92
2.7	7.99
2.72	8.06
2.73	8.13
2.75	8.2
2.76	8.24
2.78	8.33
2.79	8.34
2.81	8.47
2.82	8.5
2.84	8.55
2.85	8.68
2.87	8.75
2.88	8.82
2.9	8.87
2.91	8.96
2.93	9.03
2.94	9.09
2.96	9.17
2.97	9.23
2.99	9.26
3	9.37
0	0.00898
0.015	0.00899
0.03	0.0171
0.045	0.0198
0.06	0.0236
0.075	0.0356
0.09	0.0533
0.105	0.0637
0.12	0.0848
0.135	0.0867
0.15	0.128
0.165	0.144
0.18	0.176
0.195	0.205
0.21	0.237
0.225	0.269
0.24	0.305
0.255	0.339
0.27	0.38
0.285	0.388
0.3	0.455
0.315	0.486
0.33	0.552
0.345	0.595
0.36	0.645
0.375	0.693
0.39	0.744
0.405	0.777
0.42	0.85
0.435	0.876
0.45	0.954
0.465	1.02
0.48	1.07
0.495	1.13
0.51	1.19
0.525	1.24
0.54	1.31
0.555	1.33
0.57	1.43
0.585	1.48
0.6	1.56
0.615	1.62
0.63	1.69
0.645	1.75
0.66	1.82
0.675	1.89
0.69	1.96
0.705	1.97
0.72	2.06
0.735	2.16
0.75	2.23
0.765	2.3
0.78	2.38
0.795	2.44
0.81	2.52
0.825	2.59
0.84	2.66
0.855	2.74
0.87	2.81
0.885	2.88
0.9	2.96
0.915	3.03
0.93	3.1
0.945	3.15
0.96	3.2
0.975	3.34
0.99	3.42
1	3.49
1.02	3.57
1.03	3.65
1.05	3.67
1.06	3.81
1.08	3.86
1.09	3.97
1.11	4.05
1.12	4.1
1.14	4.21
1.15	4.22
1.17	4.37
1.18	4.45
1.2	4.54
1.21	4.6
1.23	4.7
1.24	4.71
1.26	4.86
1.27	4.9
1.29	5.03
1.3	5.11
1.32	5.2
1.33	5.28
1.35	5.37
1.36	5.45
1.38	5.54
1.39	5.61
1.41	5.7
1.42	5.79
1.44	5.88
1.45	5.96
1.47	6.03
1.48	6.09
1.5	6.15
1.51	6.31
1.53	6.39
1.54	6.48
1.56	6.57
1.57	6.65
1.59	6.74
1.6	6.83
1.62	6.84
1.63	6.97
1.65	7.1
1.66	7.18
1.68	7.27
1.69	7.32
1.71	7.38
1.72	7.52
1.74	7.62
1.75	7.71
1.77	7.8
1.78	7.89
1.8	7.98
1.81	8.07
1.83	8.16
1.84	8.19
1.86	8.34
1.87	8.42
1.89	8.52
1.9	8.61
1.92	8.7
1.93	8.79
1.95	8.88
1.96	8.95
1.98	9.01
1.99	9.15
2.01	9.22
2.02	9.34
2.04	9.35
2.05	9.52
2.07	9.61
2.08	9.7
2.1	9.79
2.11	9.88
2.13	9.97
2.14	10.1
2.16	10.1
2.17	10.2
2.19	10.3
2.2	10.4
2.22	10.5
2.23	10.6
2.25	10.7
2.27	10.7
2.28	10.9
2.3	11
2.31	11.1
2.33	11.2
2.34	11.3
2.36	11.3
2.37	11.4
2.39	11.5
2.4	11.6
2.42	11.7
2.43	11.8
2.45	11.9
2.46	12
2.48	12.1
2.49	12.2
2.51	12.3
2.52	12.3
2.54	12.5
2.55	12.5
2.57	12.7
2.58	12.7
2.6	12.8
2.61	12.9
2.63	13
2.64	13.1
2.66	13.2
2.67	13.3
2.69	13.4
2.7	13.5
2.72	13.6
2.73	13.6
2.75	13.8
2.76	13.9
2.78	13.9
2.79	14
2.81	14.1
2.82	14.2
2.84	14.3
2.85	14.4
2.87	14.5
2.88	14.6
2.9	14.7
2.91	14.8
2.93	14.8
2.94	15
2.96	15.1
2.97	15.2
2.99	15.3
3	15.3
